Exploring the BRFSS data
…
Research quesion 2:

To approach this research question, we will first filter data to select only people who either smoke tobacco or use any smokeless tobacco product on daily basis. Then, we will group this data by age-groups and physical activity levels.

tobacco_stat <- brfss2013 %>% 
  filter(dispcode == "Completed interview" & 
           (smokday2 == "Every day"| usenow3 == "Every day") &  
           !is.na(X_pacat1) & !is.na(X_age_g)) %>% 
  group_by(X_pacat1, X_age_g) %>% 
  summarise(count = n()) %>%
  arrange(desc(count))
tobacco_stat

## Source: local data frame [24 x 3]
## Groups: X_pacat1 [4]
## 
##                 X_pacat1         X_age_g count
##                   <fctr>          <fctr> <int>
## 1               Inactive    Age 55 to 64  5999
## 2               Inactive    Age 45 to 54  5414
## 3               Inactive Age 65 or older  4901
## 4          Highly active    Age 55 to 64  3346
## 5               Inactive    Age 35 to 44  3174
## 6          Highly active    Age 45 to 54  3136
## 7          Highly active Age 65 or older  2594
## 8               Inactive    Age 25 to 34  2364
## 9  Insufficiently active    Age 45 to 54  2071
## 10         Highly active    Age 25 to 34  2058
## # ... with 14 more rows
…
